{
	"info": {
		"_postman_id": "7eff8ba7-771c-48d4-8157-3593a4e8e36f",
		"name": "Adidas - Product and Review Services",
		"schema": "https://schema.getpostman.com/json/collection/v2.1.0/collection.json"
	},
	"item": [
		{
			"name": "Get Product C77154",
			"request": {
				"method": "GET",
				"header": [],
				"body": {},
				"url": {
					"raw": "http://127.0.0.1:3000/product/C77154",
					"protocol": "http",
					"host": [
						"127",
						"0",
						"0",
						"1"
					],
					"port": "3000",
					"path": [
						"product",
						"C77154"
					]
				}
			},
			"response": []
		},
		{
			"name": "Get Product M20324",
			"request": {
				"method": "GET",
				"header": [],
				"body": {},
				"url": {
					"raw": "http://127.0.0.1:3000/product/M20324",
					"protocol": "http",
					"host": [
						"127",
						"0",
						"0",
						"1"
					],
					"port": "3000",
					"path": [
						"product",
						"M20324"
					]
				}
			},
			"response": []
		},
		{
			"name": "Get Review for C77154",
			"request": {
				"method": "GET",
				"header": [],
				"body": {},
				"url": {
					"raw": "https://127.0.0.1:3001/review/C77154",
					"protocol": "https",
					"host": [
						"127",
						"0",
						"0",
						"1"
					],
					"port": "3001",
					"path": [
						"review",
						"C77154"
					]
				}
			},
			"response": []
		},
		{
			"name": "Update Review for C77154",
			"request": {
				"auth": {
					"type": "basic",
					"basic": [
						{
							"key": "username",
							"value": "adidas",
							"type": "string"
						},
						{
							"key": "password",
							"value": "zaragoza",
							"type": "string"
						}
					]
				},
				"method": "POST",
				"header": [
					{
						"key": "Content-Type",
						"value": "application/json"
					}
				],
				"body": {
					"mode": "raw",
					"raw": "{\"score_avg\": 5, \"reviews_cnt\": 5}"
				},
				"url": {
					"raw": "https://127.0.0.1:3001/review/C77154",
					"protocol": "https",
					"host": [
						"127",
						"0",
						"0",
						"1"
					],
					"port": "3001",
					"path": [
						"review",
						"C77154"
					]
				},
				"description": "Will cause Error 409 when calling multiple times"
			},
			"response": []
		},
		{
			"name": "Update Review for C77154 with upsert key",
			"request": {
				"auth": {
					"type": "basic",
					"basic": [
						{
							"key": "username",
							"value": "adidas",
							"type": "string"
						},
						{
							"key": "password",
							"value": "zaragoza",
							"type": "string"
						}
					]
				},
				"method": "POST",
				"header": [
					{
						"key": "Content-Type",
						"value": "application/json"
					}
				],
				"body": {
					"mode": "raw",
					"raw": "{\"score_avg\": 5, \"reviews_cnt\": 5, \"upsert\": true}"
				},
				"url": {
					"raw": "https://127.0.0.1:3001/review/C77154",
					"protocol": "https",
					"host": [
						"127",
						"0",
						"0",
						"1"
					],
					"port": "3001",
					"path": [
						"review",
						"C77154"
					]
				}
			},
			"response": []
		},
		{
			"name": "Update Review for C77154 (PUT)",
			"request": {
				"auth": {
					"type": "basic",
					"basic": [
						{
							"key": "username",
							"value": "adidas",
							"type": "string"
						},
						{
							"key": "password",
							"value": "zaragoza",
							"type": "string"
						}
					]
				},
				"method": "PUT",
				"header": [
					{
						"key": "Content-Type",
						"value": "application/json"
					}
				],
				"body": {
					"mode": "raw",
					"raw": "{\"score_avg\": 5, \"reviews_cnt\": 6}"
				},
				"url": {
					"raw": "https://127.0.0.1:3001/review/C77154",
					"protocol": "https",
					"host": [
						"127",
						"0",
						"0",
						"1"
					],
					"port": "3001",
					"path": [
						"review",
						"C77154"
					]
				}
			},
			"response": []
		},
		{
			"name": "Update Review for C77154 (PATCH)",
			"request": {
				"auth": {
					"type": "basic",
					"basic": [
						{
							"key": "username",
							"value": "adidas",
							"type": "string"
						},
						{
							"key": "password",
							"value": "zaragoza",
							"type": "string"
						}
					]
				},
				"method": "PATCH",
				"header": [
					{
						"key": "Content-Type",
						"value": "application/json"
					}
				],
				"body": {
					"mode": "raw",
					"raw": "{\"score_avg\": 1, \"reviews_cnt\": 6}"
				},
				"url": {
					"raw": "https://127.0.0.1:3001/review/C77154",
					"protocol": "https",
					"host": [
						"127",
						"0",
						"0",
						"1"
					],
					"port": "3001",
					"path": [
						"review",
						"C77154"
					]
				}
			},
			"response": []
		},
		{
			"name": "Вудуеу Review for C77154",
			"request": {
				"auth": {
					"type": "basic",
					"basic": [
						{
							"key": "username",
							"value": "adidas",
							"type": "string"
						},
						{
							"key": "password",
							"value": "zaragoza",
							"type": "string"
						}
					]
				},
				"method": "DELETE",
				"header": [
					{
						"key": "Content-Type",
						"value": "application/json"
					}
				],
				"body": {
					"mode": "raw",
					"raw": ""
				},
				"url": {
					"raw": "https://127.0.0.1:3001/review/C77154",
					"protocol": "https",
					"host": [
						"127",
						"0",
						"0",
						"1"
					],
					"port": "3001",
					"path": [
						"review",
						"C77154"
					]
				}
			},
			"response": []
		}
	]
}